[
	{
		"id":1,
		"title":"General Symptoms",
		"enabled":true,
		"questions": [
			{
				"description":"Check any of the following symptoms that you are or have recently experienced",
				"name":"general_sympton",
				"inputType":"checkbox",
				"required":true,
				"subSectionMatch": {},
				"subSections":[],
				"values":[],
				"options": [
					{ "value" : "gain", "text": "Recent Weight Gain", "selected":false },
					{ "value" : "loss", "text": "Recent Weight Loss", "selected":false }
				]

			}
		]
	},
	{
		"id":2,
		"title":"Head Symptoms",
		"enabled":true,
		"questions": [
			{
				"description":"Check any of the following symptoms that you are or have recently experienced",
				"name":"head_sympton",
				"inputType":"checkbox",
				"required":true,
				"subSectionMatch": {
					"frequent_headaches":4
				},
				"subSections":[],
				"values":[],
				"options": [
					{ "value" : "frequent_headaches", "text": "Frequent Headaches", "selected":false },
					{ "value" : "migraines", "text": "Migraines", "selected":false },
					{ "value" : "head_injuries", "text": "Head injuries", "selected":false },
					{ "value" : "eye_pain", "text": "Eye pain", "selected":false },
					{ "value" : "ear_ache", "text": "Ear ache", "selected":false },
					{ "value" : "colds", "text": "Colds", "selected":false },
					{ "value" : "sinus", "text": "Sinus", "selected":false },
					{ "value" : "blurred_vision", "text": "Blurred Vision", "selected":false },
					{ "value" : "headaches", "text": "Headaches", "selected":false },
					{ "value" : "ringing", "text": "Ringing", "selected":false },
					{ "value" : "hayfever", "text": "Hayfever", "selected":false },
					{ "value" : "seizures", "text": "Seizures", "selected":false }
				]

			}
		]
	},
	{
		"id":2,
		"title":"Gender specific symptoms",
		"enabled":true,
		"questions": [
			{
				"description":"Select your gender/sex",
				"name":"gender_sex",
				"inputType":"radio",
				"required":true,
				"subSectionMatch": {
					"female":7,
					"male": 8
				},
				"subSections":[],
				"values":[],
				"options": [
					{ "value" : "female", "text": "Female", "selected":false },
					{ "value" : "male", "text": "Male", "selected":false }
				]

			}
		]
	},
	{
		"id":3,
		"title":"Symptoms in the extremeties",
		"enabled":true,
		"questions": [
			{
				"description":"Check any of the following symptoms that you are or have recently experienced",
				"name":"general_sympton",
				"inputType":"checkbox",
				"required":true,
				"subSectionMatch": {
					"shaking" : 5
				},
				"subSections":[],
				"values":[],
				"options": [
					{ "value" : "tingling", "text": "Tingling in hands or feet", "selected":false },
					{ "value" : "shaking", "text": "Shaking in hands or feet", "selected":false },
					{ "value" : "pain_calves", "text": "Pain in calves", "selected":false },
					{ "value" : "swelling", "text": "Swelling in hands", "selected":false }
				]

			}
		]
	},
	{
		"id":4,
		"title":"Tell us more about your headaches",
		"enabled":false,
		"questions": [
			{
				"description":"What are the most frequent location(s) of your headaches",
				"name":"headeache_location",
				"inputType":"checkbox",
				"required":true,
				"subSectionMatch": {},
				"subSections":[],
				"values":[],
				"options": [
					{ "value" : "front", "text": "Front", "selected":false },
					{ "value" : "back", "text": "Back", "selected":false },
					{ "value" : "left_side", "text": "Left side", "selected":false },
					{ "value" : "right_side", "text": "Right side", "selected":false }
				]

			},
			{
				"description":"What is the frequency of your headaches",
				"name":"headeache_frequency",
				"inputType":"radio",
				"required":true,
				"subSectionMatch": {},
				"subSections":[],
				"values":[],
				"options": [
					{ "value" : "daily", "text": "Daily", "selected":false },
					{ "value" : "times_week", "text": "2-3 times/week", "selected":false },
					{ "value" : "weekly", "text": "Weekly", "selected":false },
					{ "value" : "less_frequent", "text": "Less frequent", "selected":false }
				]

			}
		]
	},
	{
		"id":5,
		"title":"Tell us more about the shaking in your hands or feet",
		"enabled":false,
		"questions": [
			{
				"description":"Where have you been experiencing this?",
				"name":"shaking_location",
				"inputType":"radio",
				"required":true,
				"subSectionMatch": {},
				"subSections":[],
				"values":[],
				"options": [
					{ "value" : "left_hand", "text": "Left hand", "selected":false },
					{ "value" : "right_hand", "text": "Right hand", "selected":false },
					{ "value" : "left_foot", "text": "Left foot", "selected":false },
					{ "value" : "right_foot", "text": "Right foot", "selected":false }
				]

			}
		]
	},
	{
		"id":6,
		"title":"Muscles, joints and bones",
		"enabled":true,
		"questions": [
			{
				"description":"Check any of the following symptoms that you are or have recently experienced",
				"name":"muscles_joints_bones",
				"inputType":"checkbox",
				"required":true,
				"subSectionMatch": {},
				"subSections":[],
				"values":[],
				"options": [
					{ "value" : "back_ache", "text": "Back ache", "selected":false },
					{ "value" : "joint_ache", "text": "Joint ache", "selected":false },
					{ "value" : "joint_swelling", "text": "Joint swelling", "selected":false },
					{ "value" : "numbness", "text": "Numbness", "selected":false }
				]

			}
		]
	},
	{
		"id":7,
		"title":"For women only",
		"enabled":false,
		"questions": [
			{
				"description":"Check any of the following symptoms that you are or have recently experienced ",
				"name":"female_specific_sympton",
				"inputType":"checkbox",
				"required":true,
				"subSectionMatch": {},
				"subSections":[],
				"values":[],
				"options": [
					{ "value" : "bleeding", "text": "Bleeding between periods", "selected":false },
					{ "value" : "bleeding_menopause", "text": "Vaginal bleeding since menopause", "selected":false },
					{ "value" : "lumps", "text": "Lumps in breast", "selected":false },
					{ "value" : "discharge", "text": "Vaginal discharge", "selected":false },
					{ "value" : "lactation", "text": "Lactation unrelated to pregnancy", "selected":false },
					{ "value" : "pain", "text": "Pain with intercourse", "selected":false }
				]

			}
		]
	},
	{
		"id":8,
		"title":"For men only",
		"enabled":false,
		"questions": [
			{
				"description":"Check any of the following symptoms that you are or have recently experienced ",
				"name":"male_specific_sympton",
				"inputType":"checkbox",
				"required":true,
				"subSectionMatch": {},
				"subSections":[],
				"values":[],
				"options": [
					{ "value" : "high_prostrate", "text": "High prostate PSA", "selected":false },
					{ "value" : "discharge", "text": "Discharge from penis", "selected":false },
					{ "value" : "bumps", "text": "Any swelling or bumps", "selected":false },
					{ "value" : "growth", "text": "Pain in testicles", "selected":false },
					{ "value" : "gain", "text": "Breast growth", "selected":false }
				]

			}
		]
	}
]